…
Now we can confirm what was happen with the variable `gay_rights` in
each year.

``` r
#Check the gay_rights variable in 1984
ces %>% 
  filter(election==1984) %>% 
  select(gay_rights)
#> # A tibble: 3,377 × 1
#>    gay_rights
#>         <dbl>
#>  1         NA
#>  2         NA
#>  3         NA
#>  4         NA
#>  5         NA
#>  6         NA
#>  7         NA
#>  8         NA
#>  9         NA
#> 10         NA
#> # ℹ 3,367 more rows
```

``` r
#Check the gay_rights variable in 1988
ces %>% 
  filter(election==1988) %>% 
  select(gay_rights)
#> # A tibble: 3,609 × 1
#>    gay_rights
#>         <dbl>
#>  1       NA  
#>  2       NA  
#>  3       NA  
#>  4       NA  
#>  5       NA  
#>  6       NA  
#>  7        0.5
#>  8       NA  
#>  9        0.5
#> 10        0  
#> # ℹ 3,599 more rows
```
…
3.  Renaming re-coded variables in `ces04`, `ces06`, `ces08` and `ces11`
    data frames.

Because respondents in`ces04` and `ces08` all come from the giant
combined file, all have recoded variables from each election. For
variables they were not eligible to report because they weren’t in that
survey, their values are `NA`

``` r
ces04 %>% 
select(contains('vote')) %>% 
  as_factor()
#> # A tibble: 2,324 × 5
#>    ces08_PES_PROV_VOTE1 vote04       vote06 vote08 vote11
#>    <fct>                <fct>        <fct>  <fct>  <fct> 
#>  1 <NA>                 <NA>         <NA>   <NA>   <NA>  
#>  2 <NA>                 <NA>         <NA>   <NA>   <NA>  
#>  3 <NA>                 Conservative <NA>   <NA>   <NA>  
#>  4 <NA>                 Conservative <NA>   <NA>   <NA>  
#>  5 <NA>                 <NA>         <NA>   <NA>   <NA>  
#>  6 <NA>                 <NA>         <NA>   <NA>   <NA>  
#>  7 <NA>                 NDP          <NA>   <NA>   <NA>  
#>  8 <NA>                 Conservative <NA>   <NA>   <NA>  
#>  9 <NA>                 <NA>         <NA>   <NA>   <NA>  
#> 10 <NA>                 <NA>         <NA>   <NA>   <NA>  
#> # ℹ 2,314 more rows
```

Note, because we used an expansive filtering strategy for `ces08` there
are respondents who actully have responses for variables from 2004.
However, because we are defining this as a dataset for 2008, we will
effectively drop those earlier responses and only take respondents’
values from 2008.

``` r
ces08 %>% 
  select(contains('vote')) %>% 
  as_factor()
#> # A tibble: 3,689 × 5
#>    ces08_PES_PROV_VOTE1     vote04  vote06       vote08       vote11      
#>    <fct>                    <fct>   <fct>        <fct>        <fct>       
#>  1 NDP (New Democrats)      Green   NDP          NDP          Conservative
#>  2 NDP (New Democrats)      Liberal Liberal      Liberal      Liberal     
#>  3 R volunteers: It depends <NA>    Liberal      <NA>         NDP         
#>  4 NDP (New Democrats)      Liberal Liberal      NDP          NDP         
#>  5 Other                    Bloc    NDP          NDP          NDP         
#>  6 L'Action Democratique    Bloc    NDP          NDP          NDP         
#>  7 refused                  <NA>    Conservative <NA>         Conservative
#>  8 Liberal (Grits)          Green   Green        Liberal      Green       
#>  9 Liberal (Grits)          Bloc    NDP          Bloc         Conservative
#> 10 Liberal (Grits)          Liberal Conservative Conservative Conservative
#> # ℹ 3,679 more rows
```
…
